episodes1,episodes2,episodes3,episodes4,episodes5,episodes6,episodes7,episodes8,episodes9,episodes10
23.5,32.5,23.0,36.0,35.5,37.5,45.5,42.5,45.5,45.5
5.5 ,22.5,30.5,33.5,31.5,37.0,33.0,45.5,41.5,38.5
27.0,29.0,36.0,37.5,44.5,42.0,48.0,39.5,45.5,40.5
24.5,47.0,35.5,37.0,40.5,42.0,43.5,44.0,41.0,42.5
44.5,57.0,39.5,52.0,51.5,49.5,52.0,48.5,48.5,50.0
