v1,v2,100,200,300,400,500,600,700,800,900,1000
0.1,0.1,56.0,53.0,52.0,64.0,52.0,51.0,57.0,45.0,46.0,59.0
0.1,1.0,32.0,34.0,47.0,53.0,43.0,37.0,40.0,44.0,42.0,54.0
0.1,10,58.0,34.0,19.0,26.0,37.0,35.0,32.0,35.0,26.0,30.0
1.0,0.1,51.0,54.0,62.0,54.0,60.0,70.0,62.0,63.0,63.0,64.0
1.0,1.0,58.0,64.0,57.0,58.0,74.0,63.0,69.0,68.0,64.0,71.0
1.0,10,34.0,44.0,50.0,54.0,47.0,50.0,49.0,48.0,49.0,59.0
10,0.1,29.0,30.0,48.0,49.0,50.0,59.0,63.0,63.0,58.0,61.0
10,1.0,39.0,58.0,59.0,65.0,68.0,74.0,70.0,58.0,64.0,74.0
10,10,57.0,59.0,65.0,54.0,67.0,57.0,55.0,59.0,65.0,64.0
