v1,v2,100,200,300,400,500,600,700,800,900,1000
0.1,0.1,9.73,9.78,9.79,9.41,9.79,9.8,9.7,9.75,9.77,9.64
0.1,1.0,9.14,9.28,9.78,9.78,9.7,9.46,9.6,9.73,9.67,9.77
0.1,10,9.67,9.28,7.69,8.6,9.46,9.35,9.14,9.35,8.6,8.98
1.0,0.1,9.8,9.77,9.51,9.77,9.6,8.98,9.51,9.46,9.46,9.41
1.0,1.0,9.67,9.41,9.7,9.67,8.6,9.46,9.06,9.14,9.41,8.89
1.0,10,9.28,9.73,9.8,9.77,9.78,9.8,9.8,9.79,9.8,9.64
10,0.1,8.89,8.98,9.79,9.8,9.8,9.64,9.46,9.46,9.67,9.56
10,1.0,9.56,9.67,9.64,9.35,9.14,8.6,8.98,9.67,9.41,8.6
10,10,9.7,9.64,9.35,9.77,9.22,9.7,9.75,9.64,9.35,9.41
