episodes1,episodes2,episodes3,episodes4,episodes5,episodes6,episodes7,episodes8,episodes9,episodes10
6.76,6.67,6.54,6.54,6.57,6.22,6.69,6.52,6.57,6.49
6.67,6.38,6.52,6.41,6.29,6.32,6.59,4.95,6.54,4.74
6.15,6.29,6.65,6.71,6.89,6.84,6.92,6.78,6.9 ,6.8 
5.96,6.92,6.63,6.69,6.8 ,6.84,6.87,6.88,6.82,6.85
6.89,6.86,6.78,6.92,6.93,6.93,6.92,6.93,6.93,6.93
