                    goal.joint                    
--------------------------------------------------------------------------------------
              |     eval_1a     |     eval_1b     |     eval_2a     |     eval_2b    |
--------------------------------------------------------------------------------------
acc           |    0.5737705    |    0.3715847    |    0.5686546    |    0.3772538   |
avgp          |    0.5586598    |    0.3646900    |    0.5533135    |    0.3702539   |
l2            |    0.8246429    |    1.2125826    |    0.8344502    |    1.2005693   |
l2.binary     |    0.8544652    |    1.2497474    |    0.8647275    |    1.2383011   |
mrr           |    0.5751366    |    0.3831967    |    0.5700416    |    0.3890430   |
neglogp       |    3.9217899    |    5.6665126    |    3.9688487    |    5.6124459   |
roc.v1_ca05   |    0.0000000    |    0.0000000    |    0.0000000    |    0.0000000   |
roc.v1_ca10   |    0.0000000    |    0.0000000    |    0.0000000    |    0.0000000   |
roc.v1_ca20   |    0.3374317    |    0.0000000    |    0.3287101    |    0.0000000   |
roc.v1_eer    |    0.4330601    |    0.4822404    |    0.4382802    |    0.4674064   |
roc.v2_ca05   |    0.0000000    |    0.0000000    |    0.0000000    |    0.0000000   |
roc.v2_ca10   |    0.0000000    |    0.0000000    |    0.0000000    |    0.0000000   |
roc.v2_ca20   |    0.0000000    |    0.0000000    |    0.0000000    |    0.0000000   |
update.acc    |    0.3941176    |    0.1621129    |    0.3948919    |    0.1654275   |
update.prec   |    0.8445378    |    0.3739496    |    0.8445378    |    0.3739496   |



                      method                      
--------------------------------------------------------------------------------------
              |     eval_1a     |     eval_1b     |     eval_2a     |     eval_2b    |
--------------------------------------------------------------------------------------
acc           |    0.6721311    |    0.8142077    |    0.6823856    |    0.8266297   |
avgp          |    0.6704530    |    0.8004870    |    0.6806818    |    0.8126997   |
l2            |    0.5972452    |    0.3371771    |    0.5758440    |    0.3118081   |
l2.binary     |    0.6083109    |    0.3526341    |    0.5870784    |    0.3275010   |
mrr           |    0.7297359    |    0.8344718    |    0.7408692    |    0.8472030   |
neglogp       |    2.2593822    |    1.4336450    |    2.1533343    |    1.3149992   |
roc.v1_ca05   |    0.0013661    |    0.0013661    |    0.0013870    |    0.0013870   |
roc.v1_ca10   |    0.0013661    |    0.6871585    |    0.0013870    |    0.7406380   |
roc.v1_ca20   |    0.5191257    |    0.8142077    |    0.5464632    |    0.8266297   |
roc.v1_eer    |    0.3661202    |    0.2049180    |    0.3467406    |    0.1886269   |
roc.v2_ca05   |    0.0020325    |    0.0016779    |    0.0020325    |    0.0016779   |
roc.v2_ca10   |    0.0020325    |    0.0016779    |    0.0020325    |    0.0016779   |
roc.v2_ca20   |    0.0020325    |    0.0016779    |    0.0020325    |    0.0016779   |
update.acc    |    0.6210526    |    0.7089716    |    0.6395664    |    0.7264574   |
update.prec   |    0.6781609    |    0.9310345    |    0.6781609    |    0.9310345   |



                  requested.all                   
--------------------------------------------------
              |     eval_1a     |     eval_2a    |
--------------------------------------------------
acc           |    0.9936817    |    0.9137056   |
avgp          |    0.9911142    |    0.8828670   |
l2            |    0.0091295    |    0.1221110   |
l2.binary     |    0.0091295    |    0.1221110   |
mrr           |    0.9968408    |    0.9568528   |
neglogp       |    0.0186096    |    0.2187671   |
roc.v1_ca05   |    0.9936817    |    0.8857868   |
roc.v1_ca10   |    0.9936817    |    0.9137056   |
roc.v1_ca20   |    0.9936817    |    0.9137056   |
roc.v1_eer    |    0.0068306    |    0.0913706   |
roc.v2_ca05   |    0.0001719    |    0.6055556   |
roc.v2_ca10   |    0.9678639    |    0.7111111   |
roc.v2_ca20   |    0.9872830    |    0.8055556   |
update.acc    |    0.9551935    |    0.9128440   |
update.prec   |    0.9690083    |    0.8963964   |



                                    featured metrics
--------------------------------------------------------------------
              |   Joint Goals   |    Requested    |      Method    |
--------------------------------------------------------------------
Accuracy      |    0.5686546    |    0.9137056    |    0.6823856   |
l2            |    0.8344502    |    0.1221110    |    0.5758440   |
roc.v2_ca05   |    0.0000000    |    0.6055556    |    0.0020325   |



                                    basic stats
-----------------------------------------------------------------------------------
             dataset : dstc2_data
            sessions : 100
     total_wall_time : 0.459715127945
               turns : 732
  wall_time_per_turn : 0.000628026131072
