                    goal.joint                    
--------------------------------------------------------------------------------------
              |     eval_1a     |     eval_1b     |     eval_2a     |     eval_2b    |
--------------------------------------------------------------------------------------
acc           |    0.7349727    |    0.5027322    |    0.7323162    |    0.5104022   |
avgp          |    0.6897299    |    0.4644727    |    0.6863832    |    0.4715590   |
l2            |    0.4176613    |    0.8681757    |    0.4212595    |    0.8509079   |
l2.binary     |    0.4970189    |    0.9816818    |    0.5018278    |    0.9661458   |
mrr           |    0.8046676    |    0.5597678    |    0.8030744    |    0.5683079   |
neglogp       |    1.6490700    |    4.1400711    |    1.6614548    |    4.0627161   |
roc.v1_ca05   |    0.4931694    |    0.0000000    |    0.4979196    |    0.0000000   |
roc.v1_ca10   |    0.6215847    |    0.0983607    |    0.6171983    |    0.1040222   |
roc.v1_ca20   |    0.7062842    |    0.2527322    |    0.7031900    |    0.2829404   |
roc.v1_eer    |    0.2267760    |    0.4398907    |    0.2288488    |    0.4355062   |
roc.v2_ca05   |    0.0000000    |    0.0000000    |    0.0000000    |    0.0000000   |
roc.v2_ca10   |    0.2881041    |    0.0000000    |    0.3560606    |    0.0000000   |
roc.v2_ca20   |    0.6988848    |    0.1929348    |    0.6931818    |    0.2038043   |
update.acc    |    0.5480769    |    0.2309322    |    0.5493976    |    0.2364425   |
update.prec   |    0.8444444    |    0.4037037    |    0.8444444    |    0.4037037   |



                      method                      
--------------------------------------------------------------------------------------
              |     eval_1a     |     eval_1b     |     eval_2a     |     eval_2b    |
--------------------------------------------------------------------------------------
acc           |    0.6653005    |    0.8128415    |    0.6754508    |    0.8252427   |
avgp          |    0.6594803    |    0.7956241    |    0.6695417    |    0.8077626   |
l2            |    0.5971978    |    0.3249102    |    0.5757958    |    0.2993540   |
l2.binary     |    0.6103269    |    0.3563804    |    0.5891252    |    0.3313043   |
mrr           |    0.8010018    |    0.8342441    |    0.8132224    |    0.8469718   |
neglogp       |    2.1838703    |    1.4352585    |    2.0766703    |    1.3166373   |
roc.v1_ca05   |    0.0013661    |    0.5437158    |    0.0013870    |    0.6851595   |
roc.v1_ca10   |    0.0013661    |    0.7527322    |    0.0013870    |    0.7794730   |
roc.v1_ca20   |    0.4781421    |    0.8128415    |    0.5090153    |    0.8252427   |
roc.v1_eer    |    0.3907104    |    0.1666667    |    0.3772538    |    0.1525659   |
roc.v2_ca05   |    0.0020534    |    0.0016807    |    0.0020534    |    0.0016807   |
roc.v2_ca10   |    0.0020534    |    0.0016807    |    0.0020534    |    0.0016807   |
roc.v2_ca20   |    0.0020534    |    0.5747899    |    0.0020534    |    0.6689076   |
update.acc    |    0.6015625    |    0.7049892    |    0.6193029    |    0.7222222   |
update.prec   |    0.6854599    |    0.9643917    |    0.6854599    |    0.9643917   |



                  requested.all                   
--------------------------------------------------
              |     eval_1a     |     eval_2a    |
--------------------------------------------------
acc           |    0.9436475    |    0.8807107   |
avgp          |    0.9422807    |    0.8500965   |
l2            |    0.0994074    |    0.1895392   |
l2.binary     |    0.0994074    |    0.1895392   |
mrr           |    0.9718238    |    0.9403553   |
neglogp       |    0.3499267    |    0.5422402   |
roc.v1_ca05   |    0.9375000    |    0.6979695   |
roc.v1_ca10   |    0.9436475    |    0.8756345   |
roc.v1_ca20   |    0.9436475    |    0.8807107   |
roc.v1_eer    |    0.0725751    |    0.1421320   |
roc.v2_ca05   |    0.0001810    |    0.0028818   |
roc.v2_ca10   |    0.0001810    |    0.0028818   |
roc.v2_ca20   |    0.0001810    |    0.0028818   |
update.acc    |    0.9376623    |    0.8504673   |
update.prec   |    0.7191235    |    0.8878049   |



                                    featured metrics
--------------------------------------------------------------------
              |   Joint Goals   |    Requested    |      Method    |
--------------------------------------------------------------------
Accuracy      |    0.7323162    |    0.8807107    |    0.6754508   |
l2            |    0.4212595    |    0.1895392    |    0.5757958   |
roc.v2_ca05   |    0.0000000    |    0.0028818    |    0.0020534   |



                                    basic stats
-----------------------------------------------------------------------------------
             dataset : dstc2_data
            sessions : 100
     total_wall_time : 0.375066995621
               turns : 732
  wall_time_per_turn : 0.000512386606039
